[
    {"id": "1001", "Firstname": "Luke", "Lastname": "Skywalker", "Company": "Walt Disney", "Salary": "40000"},
    {"id": "1002", "Firstname": "Tony", "Lastname": "Stark", "Company": "Marvel", "Salary": "1000000"},
    {"id": "1003", "Firstname": "Somchai", "Lastname": "Jaidee", "Company": "Love2Work", "Salary": "20000"},
    {"id": "1004", "Firstname": "Monkey D", "Lastname": "Luffee", "Company": "One Piece", "Salary": "40000"}
];